{
    "economicalBowlers": {
        "RN ten Doeschate": "3.64",
        "J Yadav": "4.14",
        "R Ashwin": "5.72",
        "S Nadeem": "5.97",
        "Parvez Rasool": "6.20",
        "Z Khan": "6.24",
        "MC Henriques": "6.28",
        "V Kohli": "6.67",
        "MA Starc": "6.77",
        "Sandeep Sharma": "6.97"
    }
}